<?xml version="1.0" encoding="utf-8"?>
<!-- Generator: Adobe Illustrator 16.2.1, SVG Export Plug-In . SVG Version: 6.00 Build 0)  -->
<!DOCTYPE svg PUBLIC "-//W3C//DTD SVG 1.1//EN" "http://www.w3.org/Graphics/SVG/1.1/DTD/svg11.dtd">
<svg version="1.1" id="Layer_1" xmlns="http://www.w3.org/2000/svg" xmlns:xlink="http://www.w3.org/1999/xlink" x="0px" y="0px"
	 width="512px" height="512px" viewBox="0 0 512 512" enable-background="new 0 0 512 512" xml:space="preserve">
<path d="M448.5,112c0-26.233-21.267-47.5-47.5-47.5H112c-26.233,0-47.5,21.267-47.5,47.5v289
	c0,26.233,21.267,47.5,47.5,47.5h289c26.233,0,47.5-21.267,47.5-47.5V112z M257,175.833c44.182,0,80,35.816,80,80s-35.818,80-80,80
	s-80-35.816-80-80S212.818,175.833,257,175.833z M416.5,160.5c0,8.836-7.163,16-16,16h-48c-8.837,0-16-7.164-16-16v-48
	c0-8.836,7.163-16,16-16h48c8.837,0,16,7.164,16,16V160.5z M401.5,416.5h-288c-8.822,0-17-8.178-17-17v-175h53.072
	c-3.008,10-4.572,20.647-4.572,31.583C145,286,156.65,314,177.805,335.154s49.279,32.741,79.195,32.741s58.041-11.681,79.195-32.835
	S369,286.016,369,256.099c0-10.936-1.563-21.599-4.572-31.599H416.5v175C416.5,408.322,410.322,416.5,401.5,416.5z"/>
</svg>
